<svg xmlns="http://www.w3.org/2000/svg" width="137.889" height="72.425" viewBox="0 0 137.889 72.425">
  <g id="Group_62" data-name="Group 62" transform="translate(11 145.047)">
    <g id="Group_63" data-name="Group 63" transform="translate(-11 -145.047)">
      <path id="Path_77" data-name="Path 77" d="M122-140.047,113.99-99.652l-11.349-40.395H86.286L78.2-99.306,66.754-140.047H50.5L42.413-99.306,30.967-140.047h-16.6L0-67.622H15.97l7.894-39.792,11.18,39.792H52.1L59.851-106.7,70.832-67.622H87.89L95.682-106.9l11.035,39.276h16.89l14.153-71.342a8.04,8.04,0,0,0,.128-1.083H122" transform="translate(0 140.047)" fill="#fff"/>
      <path id="Path_78" data-name="Path 78" d="M98.294-140.047a7.779,7.779,0,0,0,.267,1.624l9,32.034,6.463-32.575a7.563,7.563,0,0,0,.125-1.083H98.294" transform="translate(-47.461 140.047)" fill="#fff"/>
      <path id="Path_79" data-name="Path 79" d="M29.046-140.047a7.8,7.8,0,0,0,.291,2.337l8.716,31.02,6.4-32.275a7.88,7.88,0,0,0,.128-1.083H29.046" transform="translate(-14.024 140.047)" fill="#fff"/>
      <path id="Path_80" data-name="Path 80" d="M224.181-30.228a8.247,8.247,0,0,0-.221-1.133L215.183-62.6l-6.314,31.838c-.037.179-.056.358-.08.537h15.393" transform="translate(-100.814 102.652)" fill="#fff"/>
      <path id="Path_81" data-name="Path 81" d="M154.379-29.294a7.8,7.8,0,0,0-.289-2.216L145.9-60.669l-6.187,31.181c-.012.065-.02.13-.031.194h14.7" transform="translate(-67.446 101.719)" fill="#fff"/>
    </g>
  </g>
</svg>
